<?xml version="1.0" encoding="UTF-8" standalone="no"?>
<svg
   height="10"
   viewBox="0 0 10 9.9999992"
   width="10"
   version="1.1"
   id="svg193"
   sodipodi:docname="math_pi.svg"
   inkscape:version="1.2.2 (b0a8486541, 2022-12-01)"
   xmlns:inkscape="http://www.inkscape.org/namespaces/inkscape"
   xmlns:sodipodi="http://sodipodi.sourceforge.net/DTD/sodipodi-0.dtd"
   xmlns:xlink="http://www.w3.org/1999/xlink"
   xmlns="http://www.w3.org/2000/svg"
   xmlns:svg="http://www.w3.org/2000/svg">
  <defs
     id="defs197" />
  <sodipodi:namedview
     id="namedview195"
     pagecolor="#505050"
     bordercolor="#ffffff"
     borderopacity="1"
     inkscape:pageshadow="0"
     inkscape:pageopacity="0"
     inkscape:pagecheckerboard="1"
     showgrid="false"
     inkscape:zoom="45.254834"
     inkscape:cx="7.8444658"
     inkscape:cy="6.7396115"
     inkscape:window-width="1920"
     inkscape:window-height="1016"
     inkscape:window-x="3840"
     inkscape:window-y="479"
     inkscape:window-maximized="1"
     inkscape:current-layer="svg193"
     inkscape:showpageshadow="0"
     inkscape:deskcolor="#505050" />
  <linearGradient
     id="a"
     gradientTransform="matrix(0,-0.37367657,0.37988083,0,-78.742755,74.522988)"
     gradientUnits="userSpaceOnUse"
     x1="165.66393"
     x2="191.96703"
     y1="233.73611"
     y2="233.73611">
    <stop
       offset="0.0306"
       stop-color="#8765a9"
       id="stop2" />
    <stop
       offset="0.5153"
       stop-color="#485ba6"
       id="stop4" />
    <stop
       offset="1"
       stop-color="#003952"
       id="stop6" />
  </linearGradient>
  <clipPath
     id="b">
    <path
       d="m 4,82 h 18 v 18 H 4 Z m 0,0"
       id="path9" />
  </clipPath>
  <clipPath
     id="c">
    <path
       d="M 64,123 C 30.863281,123 4,96.136719 4,63 4,29.863281 30.863281,3 64,3 c 33.136719,0 60,26.863281 60,60 0,33.136719 -26.863281,60 -60,60 z m 0,0"
       id="path12" />
  </clipPath>
  <clipPath
     id="d">
    <path
       d="m 13,77 h 38 v 37 H 13 Z m 0,0"
       id="path15" />
  </clipPath>
  <clipPath
     id="e">
    <path
       d="M 64,123 C 30.863281,123 4,96.136719 4,63 4,29.863281 30.863281,3 64,3 c 33.136719,0 60,26.863281 60,60 0,33.136719 -26.863281,60 -60,60 z m 0,0"
       id="path18" />
  </clipPath>
  <clipPath
     id="f">
    <path
       d="M 40,78 H 60 V 98 H 40 Z m 0,0"
       id="path21" />
  </clipPath>
  <clipPath
     id="g">
    <path
       d="M 64,123 C 30.863281,123 4,96.136719 4,63 4,29.863281 30.863281,3 64,3 c 33.136719,0 60,26.863281 60,60 0,33.136719 -26.863281,60 -60,60 z m 0,0"
       id="path24" />
  </clipPath>
  <clipPath
     id="h">
    <path
       d="m 52,74 h 36 v 36 H 52 Z m 0,0"
       id="path27" />
  </clipPath>
  <clipPath
     id="i">
    <path
       d="M 64,123 C 30.863281,123 4,96.136719 4,63 4,29.863281 30.863281,3 64,3 c 33.136719,0 60,26.863281 60,60 0,33.136719 -26.863281,60 -60,60 z m 0,0"
       id="path30" />
  </clipPath>
  <clipPath
     id="j">
    <path
       d="m 100,78 h 24 v 24 h -24 z m 0,0"
       id="path33" />
  </clipPath>
  <clipPath
     id="k">
    <path
       d="M 64,123 C 30.863281,123 4,96.136719 4,63 4,29.863281 30.863281,3 64,3 c 33.136719,0 60,26.863281 60,60 0,33.136719 -26.863281,60 -60,60 z m 0,0"
       id="path36" />
  </clipPath>
  <clipPath
     id="l">
    <path
       d="m 77,78 h 34 v 34 H 77 Z m 0,0"
       id="path39" />
  </clipPath>
  <clipPath
     id="m">
    <path
       d="M 64,123 C 30.863281,123 4,96.136719 4,63 4,29.863281 30.863281,3 64,3 c 33.136719,0 60,26.863281 60,60 0,33.136719 -26.863281,60 -60,60 z m 0,0"
       id="path42" />
  </clipPath>
  <clipPath
     id="n">
    <path
       d="m 6,92 h 116 v 31 H 6 Z m 0,0"
       id="path45" />
  </clipPath>
  <clipPath
     id="o">
    <path
       d="M 64,123 C 30.863281,123 4,96.136719 4,63 4,29.863281 30.863281,3 64,3 c 33.136719,0 60,26.863281 60,60 0,33.136719 -26.863281,60 -60,60 z m 0,0"
       id="path48" />
  </clipPath>
  <clipPath
     id="p">
    <path
       d="m 30,94 h 36 v 29 H 30 Z m 0,0"
       id="path51" />
  </clipPath>
  <clipPath
     id="q">
    <path
       d="M 64,123 C 30.863281,123 4,96.136719 4,63 4,29.863281 30.863281,3 64,3 c 33.136719,0 60,26.863281 60,60 0,33.136719 -26.863281,60 -60,60 z m 0,0"
       id="path54" />
  </clipPath>
  <linearGradient
     id="r"
     gradientUnits="userSpaceOnUse">
    <stop
       offset="0"
       stop-color="#deddda"
       id="stop57" />
    <stop
       offset="1"
       stop-color="#ffffff"
       stop-opacity="0"
       id="stop59" />
  </linearGradient>
  <linearGradient
     id="s"
     gradientTransform="rotate(90,131.94629,190.05371)"
     x1="35.892578"
     x2="47.892578"
     xlink:href="#r"
     y1="274"
     y2="274" />
  <clipPath
     id="t">
    <path
       d="m 82,88 h 26 v 26 H 82 Z m 0,0"
       id="path63" />
  </clipPath>
  <clipPath
     id="u">
    <path
       d="M 64,123 C 30.863281,123 4,96.136719 4,63 4,29.863281 30.863281,3 64,3 c 33.136719,0 60,26.863281 60,60 0,33.136719 -26.863281,60 -60,60 z m 0,0"
       id="path66" />
  </clipPath>
  <linearGradient
     id="v"
     gradientTransform="matrix(0,0.722222,-0.722222,0,292.88889,62.077576)"
     x1="35.892578"
     x2="46.969505"
     xlink:href="#r"
     y1="274"
     y2="274" />
  <clipPath
     id="w">
    <path
       d="m 18,87 h 20 v 19 H 18 Z m 0,0"
       id="path70" />
  </clipPath>
  <clipPath
     id="x">
    <path
       d="M 64,123 C 30.863281,123 4,96.136719 4,63 4,29.863281 30.863281,3 64,3 c 33.136719,0 60,26.863281 60,60 0,33.136719 -26.863281,60 -60,60 z m 0,0"
       id="path73" />
  </clipPath>
  <linearGradient
     id="y"
     gradientTransform="matrix(0,0.527778,-0.527778,0,172.61111,68.056686)"
     x1="35.892578"
     x2="46.969505"
     xlink:href="#r"
     y1="274"
     y2="274" />
  <clipPath
     id="z">
    <path
       d="m 53,85 h 20 v 19 H 53 Z m 0,0"
       id="path77" />
  </clipPath>
  <clipPath
     id="A">
    <path
       d="M 64,123 C 30.863281,123 4,96.136719 4,63 4,29.863281 30.863281,3 64,3 c 33.136719,0 60,26.863281 60,60 0,33.136719 -26.863281,60 -60,60 z m 0,0"
       id="path80" />
  </clipPath>
  <linearGradient
     id="B"
     gradientTransform="matrix(0,0.527778,-0.527778,0,207.61111,66.056686)"
     x1="35.892578"
     x2="46.969505"
     xlink:href="#r"
     y1="274"
     y2="274" />
  <clipPath
     id="C">
    <path
       d="m 66,103 h 26 v 20 H 66 Z m 0,0"
       id="path84" />
  </clipPath>
  <clipPath
     id="D">
    <path
       d="M 64,123 C 30.863281,123 4,96.136719 4,63 4,29.863281 30.863281,3 64,3 c 33.136719,0 60,26.863281 60,60 0,33.136719 -26.863281,60 -60,60 z m 0,0"
       id="path87" />
  </clipPath>
  <linearGradient
     id="E"
     gradientTransform="matrix(0,0.722222,-0.722222,0,276.88889,77.077576)"
     x1="35.892578"
     x2="46.969505"
     xlink:href="#r"
     y1="274"
     y2="274" />
  <path
     style="fill:#000000;stroke:none;stroke-width:0.0176138"
     d="M 0,3.1530142 0.36416858,3.179991 C 0.74182525,2.7528782 0.89019058,1.489526 3.115668,1.7368021 3.0347412,7.1498785 0.66089858,7.7208591 0.80926384,8.8313499 0.86321459,9.4607777 1.3622617,9.8474266 1.9017705,9.8699063 3.6057215,9.8114617 3.5292913,7.5140467 4.0598098,1.7233143 H 6.258312 C 6.1414172,3.7644587 5.8222076,5.805601 5.7862412,7.8062826 c 0.026972,1.3307906 0.836239,2.041144 1.90177,2.0501354 1.7534059,0.058444 2.3064031,-1.9871932 2.3064031,-2.8594016 l -0.3776551,1.5e-6 C 9.580795,7.7163642 9.2346055,8.2333941 8.4972756,8.264866 6.4876026,8.2918363 7.5935967,4.7310798 7.6070855,1.75029 L 9.9944143,1.7637782 9.9809231,0.2396626 C 0.05826329,0.19159668 1.317731,-0.0029333 0,3.1530142 Z"
     id="path563" />
</svg>
